{
	"info": {
		"_postman_id": "ab41268a-723e-40fe-96f4-4a3bcae8f2e7",
		"name": "reqres_api_tests",
		"schema": "https://schema.getpostman.com/json/collection/v2.1.0/collection.json"
	},
	"item": [
		{
			"name": "GetSingleUser",
			"event": [
				{
					"listen": "test",
					"script": {
						"exec": [
							"console.log(\"SINGLE USER api tests\")",
							"// Validate Status Code",
							"pm.test(\"1: Validate status code\", function () {",
							"    pm.response.to.have.status(200);",
							"    pm.response.to.have.status(\"OK\");",
							"});",
							"// Header validation",
							"pm.test(\"2: is Content-Type present\", function () {",
							"    pm.response.to.have.header(\"Content-Type\");",
							"});",
							"pm.test(\"3: Content-Type validation\", function () {",
							"    pm.expect(pm.response.headers.get(\"Content-Type\")).to.be.eq(\"application/json; charset=utf-8\");",
							"});",
							"",
							"//Field Values validation",
							"var jsonData = JSON.parse(responseBody);",
							"",
							"pm.test(\"4: Field Validation:\", function () {",
							"    console.log(\"email:\" + jsonData.data.email);",
							"    pm.expect(jsonData.data.email).to.be.eq(\"emma.wong@reqres.in\");",
							"    pm.expect(jsonData.data.id).to.be.eq(3);",
							"});",
							"",
							"",
							"//Reponse Json Schema Validation",
							"var schema = {",
							"    \"type\": \"object\",",
							"    \"required\": [",
							"        \"data\",",
							"        \"support\"",
							"    ],",
							"    \"properties\": {",
							"        \"data\": {",
							"            \"$id\": \"#/properties/data\",",
							"            \"type\": \"object\",",
							"            \"required\": [",
							"                \"id\",",
							"                \"email\",",
							"                \"first_name\",",
							"                \"last_name\",",
							"                \"avatar\"",
							"            ],",
							"            \"properties\": {",
							"                \"id\": {",
							"                    \"$id\": \"#/properties/data/properties/id\",",
							"                    \"type\": \"number\"",
							"                },",
							"                \"email\": {",
							"                    \"$id\": \"#/properties/data/properties/email\",",
							"                    \"type\": \"string\"",
							"                },",
							"                \"first_name\": {",
							"                    \"$id\": \"#/properties/data/properties/first_name\",",
							"                    \"type\": \"string\"",
							"                },",
							"                \"last_name\": {",
							"                    \"$id\": \"#/properties/data/properties/last_name\",",
							"                    \"type\": \"string\"",
							"                },",
							"                \"avatar\": {",
							"                    \"$id\": \"#/properties/data/properties/avatar\",",
							"                    \"type\": \"string\"",
							"                }",
							"            }",
							"        },",
							"        \"support\": {",
							"            \"$id\": \"#/properties/support\",",
							"            \"type\": \"object\",",
							"            \"required\": [",
							"                \"url\",",
							"                \"text\"",
							"            ],",
							"            \"properties\": {",
							"                \"url\": {",
							"                    \"$id\": \"#/properties/support/properties/url\",",
							"                    \"type\": \"string\"",
							"                },",
							"                \"text\": {",
							"                    \"$id\": \"#/properties/support/properties/text\",",
							"                    \"type\": \"string\"",
							"                }",
							"            }",
							"        }",
							"    }",
							"};",
							"    ",
							"",
							"pm.test(\"5: Validate response JSON schema\", () => {",
							"pm.response.to.have.jsonSchema(schema);",
							"});",
							""
						],
						"type": "text/javascript"
					}
				},
				{
					"listen": "prerequest",
					"script": {
						"exec": [
							"pm.globals.set(\"baseUrl\", \"https://reqres.in\");"
						],
						"type": "text/javascript"
					}
				}
			],
			"request": {
				"method": "GET",
				"header": [],
				"url": {
					"raw": "{{baseUrl}}/api/users/3",
					"host": [
						"{{baseUrl}}"
					],
					"path": [
						"api",
						"users",
						"3"
					]
				}
			},
			"response": []
		},
		{
			"name": "GetSingleUser-NotFound",
			"event": [
				{
					"listen": "test",
					"script": {
						"exec": [
							"console.log(\"INVALID SINGLE USER api tests\")",
							"// Validate Status Code",
							"pm.test(\"1: Validate status code\", function () {",
							"    pm.response.to.have.status(404);",
							"    pm.response.to.have.status(\"Not Found\");",
							"});",
							"",
							"// Header validation",
							"pm.test(\"2: is Content-Type present\", function () {",
							"    pm.response.to.have.header(\"Content-Type\");",
							"});",
							"",
							"pm.test(\"3: Content-Type validation\", function () {",
							"    pm.expect(pm.response.headers.get(\"Content-Type\")).to.be.eq(\"application/json; charset=utf-8\");",
							"});",
							"",
							"//Reponse Json Schema Validation",
							"var schema = {};",
							"pm.test(\"4: Validate response JSON schema\", () => {",
							"pm.response.to.have.jsonSchema(schema);",
							"});"
						],
						"type": "text/javascript"
					}
				}
			],
			"request": {
				"method": "GET",
				"header": [],
				"url": {
					"raw": "{{baseUrl}}/api/users/xxx",
					"host": [
						"{{baseUrl}}"
					],
					"path": [
						"api",
						"users",
						"xxx"
					]
				}
			},
			"response": []
		},
		{
			"name": "ListUsers",
			"event": [
				{
					"listen": "prerequest",
					"script": {
						"exec": [
							""
						],
						"type": "text/javascript"
					}
				},
				{
					"listen": "test",
					"script": {
						"exec": [
							"console.log(\"LIST USER api tests\")",
							"//Status Code Validation",
							"pm.test(\"1: Validate status code\", function () {",
							"    pm.response.to.have.status(200);",
							"    pm.response.to.have.status(\"OK\");",
							"});",
							"",
							"// Header validation",
							"pm.test(\"2: is Content-Type present\", function () {",
							"    pm.response.to.have.header(\"Content-Type\");",
							"});",
							"pm.test(\"3: Content-Type validation\", function () {",
							"    pm.expect(pm.response.headers.get(\"Content-Type\")).to.be.eq(\"application/json; charset=utf-8\");",
							"});",
							"//Field Values validation",
							"var jsonData = JSON.parse(responseBody);",
							"pm.test(\"4: Field Validation:\", function () {",
							"    console.log(\"Page numbe:\" + jsonData.page);",
							"    pm.expect(jsonData.page).to.be.eq(1);",
							"    pm.expect(jsonData.per_page).to.be.eq(6);",
							"});",
							"",
							"//Reponse Json Schema Validation",
							"var schema = {",
							"    \"type\": \"object\",",
							"    \"required\": [",
							"        \"page\",",
							"        \"per_page\",",
							"        \"total\",",
							"        \"total_pages\",",
							"        \"data\",",
							"        \"support\"",
							"    ],",
							"    \"properties\": {",
							"        \"page\": {",
							"            \"$id\": \"#/properties/page\",",
							"            \"type\": \"integer\"",
							"        },",
							"        \"per_page\": {",
							"            \"$id\": \"#/properties/per_page\",",
							"            \"type\": \"integer\"",
							"        },",
							"        \"total\": {",
							"            \"$id\": \"#/properties/total\",",
							"            \"type\": \"integer\"",
							"        },",
							"        \"total_pages\": {",
							"            \"$id\": \"#/properties/total_pages\",",
							"            \"type\": \"integer\"",
							"        },",
							"        \"data\": {",
							"            \"$id\": \"#/properties/data\",",
							"            \"type\": \"array\",",
							"            \"items\": {",
							"                \"$id\": \"#/properties/data/items\",",
							"                \"anyOf\": [",
							"                    {",
							"                        \"$id\": \"#/properties/data/items/anyOf/0\",",
							"                        \"type\": \"object\",",
							"                        \"required\": [",
							"                            \"id\",",
							"                            \"email\",",
							"                            \"first_name\",",
							"                            \"last_name\",",
							"                            \"avatar\"",
							"                        ],",
							"                        \"properties\": {",
							"                            \"id\": {",
							"                                \"$id\": \"#/properties/data/items/anyOf/0/properties/id\",",
							"                                \"type\": \"integer\"",
							"                            },",
							"                            \"email\": {",
							"                                \"$id\": \"#/properties/data/items/anyOf/0/properties/email\",",
							"                                \"type\": \"string\"",
							"                            },",
							"                            \"first_name\": {",
							"                                \"$id\": \"#/properties/data/items/anyOf/0/properties/first_name\",",
							"                                \"type\": \"string\"",
							"                            },",
							"                            \"last_name\": {",
							"                                \"$id\": \"#/properties/data/items/anyOf/0/properties/last_name\",",
							"                                \"type\": \"string\"",
							"                            },",
							"                            \"avatar\": {",
							"                                \"$id\": \"#/properties/data/items/anyOf/0/properties/avatar\",",
							"                                \"type\": \"string\"",
							"                            }",
							"                        }",
							"                    }",
							"                ]",
							"            }",
							"        },",
							"        \"support\": {",
							"            \"$id\": \"#/properties/support\",",
							"            \"type\": \"object\",",
							"            \"required\": [",
							"                \"url\",",
							"                \"text\"",
							"            ],",
							"            \"properties\": {",
							"                \"url\": {",
							"                    \"$id\": \"#/properties/support/properties/url\",",
							"                    \"type\": \"string\"",
							"                },",
							"                \"text\": {",
							"                    \"$id\": \"#/properties/support/properties/text\",",
							"                    \"type\": \"string\"",
							"                }",
							"            }",
							"        }",
							"    }",
							"};",
							"    ",
							"",
							"pm.test(\"6: Validate response JSON schema\", () => {",
							"pm.response.to.have.jsonSchema(schema);",
							"});"
						],
						"type": "text/javascript"
					}
				}
			],
			"request": {
				"method": "GET",
				"header": [],
				"url": {
					"raw": "{{baseUrl}}/api/users?page=1",
					"host": [
						"{{baseUrl}}"
					],
					"path": [
						"api",
						"users"
					],
					"query": [
						{
							"key": "page",
							"value": "1"
						}
					]
				}
			},
			"response": []
		},
		{
			"name": "ListUsers-WithEmptyPage",
			"event": [
				{
					"listen": "test",
					"script": {
						"exec": [
							"console.log(\"LIST USER with empty page api tests\")",
							"",
							"//Status Code Validation",
							"pm.test(\"1: Validate status code\", function () {",
							"    pm.response.to.have.status(200);",
							"    pm.response.to.have.status(\"OK\");",
							"});",
							"",
							"// Header validation",
							"pm.test(\"2: is Content-Type present\", function () {",
							"    pm.response.to.have.header(\"Content-Type\");",
							"});",
							"",
							"pm.test(\"3: Content-Type validation\", function () {",
							"    pm.expect(pm.response.headers.get(\"Content-Type\")).to.be.eq(\"application/json; charset=utf-8\");",
							"});",
							"",
							"//Field Values validation",
							"var jsonData = JSON.parse(responseBody);",
							"pm.test(\"4: Field Validation:\", function () {",
							"    console.log(\"Page numbe:\" + jsonData.page);",
							"    pm.expect(jsonData.page).to.be.eq(100);",
							"    pm.expect(jsonData.per_page).to.be.eq(6);",
							"});",
							"",
							"//Reponse Json Schema Validation",
							"var schema = {",
							"    \"type\": \"object\",",
							"    \"required\": [",
							"        \"page\",",
							"        \"per_page\",",
							"        \"total\",",
							"        \"total_pages\",",
							"        \"data\",",
							"        \"support\"",
							"    ],",
							"    \"properties\": {",
							"        \"page\": {",
							"            \"$id\": \"#/properties/page\",",
							"            \"type\": \"integer\"",
							"        },",
							"        \"per_page\": {",
							"            \"$id\": \"#/properties/per_page\",",
							"            \"type\": \"integer\"",
							"        },",
							"        \"total\": {",
							"            \"$id\": \"#/properties/total\",",
							"            \"type\": \"integer\"",
							"        },",
							"        \"total_pages\": {",
							"            \"$id\": \"#/properties/total_pages\",",
							"            \"type\": \"integer\"",
							"        },",
							"        \"data\": {",
							"            \"$id\": \"#/properties/data\",",
							"            \"type\": \"array\",",
							"            \"items\": {",
							"                \"$id\": \"#/properties/data/items\",",
							"                \"anyOf\": [",
							"                    {",
							"                        \"$id\": \"#/properties/data/items/anyOf/0\",",
							"                        \"type\": \"object\",",
							"                        \"required\": [",
							"                            \"id\",",
							"                            \"email\",",
							"                            \"first_name\",",
							"                            \"last_name\",",
							"                            \"avatar\"",
							"                        ],",
							"                        \"properties\": {",
							"                            \"id\": {",
							"                                \"$id\": \"#/properties/data/items/anyOf/0/properties/id\",",
							"                                \"type\": \"integer\"",
							"                            },",
							"                            \"email\": {",
							"                                \"$id\": \"#/properties/data/items/anyOf/0/properties/email\",",
							"                                \"type\": \"string\"",
							"                            },",
							"                            \"first_name\": {",
							"                                \"$id\": \"#/properties/data/items/anyOf/0/properties/first_name\",",
							"                                \"type\": \"string\"",
							"                            },",
							"                            \"last_name\": {",
							"                                \"$id\": \"#/properties/data/items/anyOf/0/properties/last_name\",",
							"                                \"type\": \"string\"",
							"                            },",
							"                            \"avatar\": {",
							"                                \"$id\": \"#/properties/data/items/anyOf/0/properties/avatar\",",
							"                                \"type\": \"string\"",
							"                            }",
							"                        }",
							"                    }",
							"                ]",
							"            }",
							"        },",
							"        \"support\": {",
							"            \"$id\": \"#/properties/support\",",
							"            \"type\": \"object\",",
							"            \"required\": [",
							"                \"url\",",
							"                \"text\"",
							"            ],",
							"            \"properties\": {",
							"                \"url\": {",
							"                    \"$id\": \"#/properties/support/properties/url\",",
							"                    \"type\": \"string\"",
							"                },",
							"                \"text\": {",
							"                    \"$id\": \"#/properties/support/properties/text\",",
							"                    \"type\": \"string\"",
							"                }",
							"            }",
							"        }",
							"    }",
							"};",
							"    ",
							"",
							"pm.test(\"6: Validate response JSON schema\", () => {",
							"pm.response.to.have.jsonSchema(schema);",
							"});"
						],
						"type": "text/javascript"
					}
				}
			],
			"request": {
				"method": "GET",
				"header": [],
				"url": {
					"raw": "{{baseUrl}}/api/users?page=100",
					"host": [
						"{{baseUrl}}"
					],
					"path": [
						"api",
						"users"
					],
					"query": [
						{
							"key": "page",
							"value": "100"
						}
					]
				}
			},
			"response": []
		},
		{
			"name": "DelayedResponse",
			"event": [
				{
					"listen": "test",
					"script": {
						"exec": [
							"console.log(\"DELAYED RESPONSE api tests\")",
							"",
							"pm.test(\"1: Validate Status code\", function () {",
							"    pm.response.to.have.status(200);",
							"    pm.response.to.have.status(\"OK\");",
							"});",
							"",
							"pm.test(\"2: Response must delayed 3 seconds\", function () {",
							"    pm.expect(pm.response.responseTime).to.be.above(3000);",
							"});",
							"",
							"//Reponse Json Schema Validation",
							"var schema = {",
							"    \"type\": \"object\",",
							"    \"required\": [",
							"        \"page\",",
							"        \"per_page\",",
							"        \"total\",",
							"        \"total_pages\",",
							"        \"data\",",
							"        \"support\"",
							"    ],",
							"    \"properties\": {",
							"        \"page\": {",
							"            \"$id\": \"#/properties/page\",",
							"            \"type\": \"integer\"",
							"        },",
							"        \"per_page\": {",
							"            \"$id\": \"#/properties/per_page\",",
							"            \"type\": \"integer\"",
							"        },",
							"        \"total\": {",
							"            \"$id\": \"#/properties/total\",",
							"            \"type\": \"integer\"",
							"        },",
							"        \"total_pages\": {",
							"            \"$id\": \"#/properties/total_pages\",",
							"            \"type\": \"integer\"",
							"        },",
							"        \"data\": {",
							"            \"$id\": \"#/properties/data\",",
							"            \"type\": \"array\",",
							"            \"items\": {",
							"                \"$id\": \"#/properties/data/items\",",
							"                \"anyOf\": [",
							"                    {",
							"                        \"$id\": \"#/properties/data/items/anyOf/0\",",
							"                        \"type\": \"object\",",
							"                        \"required\": [",
							"                            \"id\",",
							"                            \"email\",",
							"                            \"first_name\",",
							"                            \"last_name\",",
							"                            \"avatar\"",
							"                        ],",
							"                        \"properties\": {",
							"                            \"id\": {",
							"                                \"$id\": \"#/properties/data/items/anyOf/0/properties/id\",",
							"                                \"type\": \"integer\"",
							"                            },",
							"                            \"email\": {",
							"                                \"$id\": \"#/properties/data/items/anyOf/0/properties/email\",",
							"                                \"type\": \"string\"",
							"                            },",
							"                            \"first_name\": {",
							"                                \"$id\": \"#/properties/data/items/anyOf/0/properties/first_name\",",
							"                                \"type\": \"string\"",
							"                            },",
							"                            \"last_name\": {",
							"                                \"$id\": \"#/properties/data/items/anyOf/0/properties/last_name\",",
							"                                \"type\": \"string\"",
							"                            },",
							"                            \"avatar\": {",
							"                                \"$id\": \"#/properties/data/items/anyOf/0/properties/avatar\",",
							"                                \"type\": \"string\"",
							"                            }",
							"                        }",
							"                    }",
							"                ]",
							"            }",
							"        },",
							"        \"support\": {",
							"            \"$id\": \"#/properties/support\",",
							"            \"type\": \"object\",",
							"            \"required\": [",
							"                \"url\",",
							"                \"text\"",
							"            ],",
							"            \"properties\": {",
							"                \"url\": {",
							"                    \"$id\": \"#/properties/support/properties/url\",",
							"                    \"type\": \"string\"",
							"                },",
							"                \"text\": {",
							"                    \"$id\": \"#/properties/support/properties/text\",",
							"                    \"type\": \"string\"",
							"                }",
							"            }",
							"        }",
							"    }",
							"};",
							"    ",
							"",
							"pm.test(\"3:Validate response JSON schema\", () => {",
							"pm.response.to.have.jsonSchema(schema);",
							"});"
						],
						"type": "text/javascript"
					}
				}
			],
			"request": {
				"method": "GET",
				"header": [],
				"url": {
					"raw": "{{baseUrl}}/api/users?delay=3",
					"host": [
						"{{baseUrl}}"
					],
					"path": [
						"api",
						"users"
					],
					"query": [
						{
							"key": "delay",
							"value": "3"
						}
					]
				}
			},
			"response": []
		},
		{
			"name": "CreateUser",
			"event": [
				{
					"listen": "test",
					"script": {
						"exec": [
							"console.log(\"CREATE api tests\")",
							"// Validate Status Code",
							"pm.test(\"1: Validate status code\", function () {",
							"    pm.response.to.have.status(201);",
							"    pm.response.to.have.status(\"Created\");",
							"    console.log(\"https status: \" +pm.response.status)",
							"});",
							"",
							"// Header validation",
							"pm.test(\"2: is Content-Type present\", function () {",
							"    pm.response.to.have.header(\"Content-Type\");",
							"});",
							"pm.test(\"3: Content-Type validation\", function () {",
							"    pm.expect(pm.response.headers.get(\"Content-Type\")).to.be.eq(\"application/json; charset=utf-8\");",
							"});",
							"",
							"//Field Values validation",
							"var jsonData = JSON.parse(responseBody);",
							"",
							"pm.test(\"4: Field Validation:\", function () {",
							"    pm.expect(jsonData.name).to.be.eq(\"tester\");",
							"    pm.expect(jsonData.job).to.be.eq(\"leader\");",
							"    pm.expect(jsonData.id).not.to.be.oneOf([null,\"\",undefined])",
							"});",
							"",
							"",
							"//Date Format validation",
							"pm.test(\"5: Date format validation\", function () {",
							"    var dateFormat = /\\d{4}-\\d{2}-\\d{2}T\\d{2}:\\d{2}:\\d{2}(\\.\\d+)?[zZ]/;",
							"    pm.expect(jsonData.createdAt).to.match(dateFormat);",
							"});",
							"",
							"//Reponse Json Schema Validation",
							"var schema = {",
							"    \"type\": \"object\",",
							"    \"required\": [",
							"        \"name\",",
							"        \"job\",",
							"        \"id\",",
							"        \"createdAt\"",
							"    ],",
							"    \"properties\": {",
							"        \"name\": {",
							"            \"$id\": \"#/properties/name\",",
							"            \"type\": \"string\"",
							"        },",
							"        \"job\": {",
							"            \"$id\": \"#/properties/job\",",
							"            \"type\": \"string\"",
							"        },",
							"        \"id\": {",
							"            \"$id\": \"#/properties/id\",",
							"            \"type\": \"string\"",
							"        },",
							"        \"createdAt\": {",
							"            \"$id\": \"#/properties/createdAt\",",
							"            \"type\": \"string\"",
							"        }",
							"    }",
							"};",
							"    ",
							"",
							"pm.test(\"6: Validate response JSON schema\", () => {",
							"pm.response.to.have.jsonSchema(schema);",
							"});"
						],
						"type": "text/javascript"
					}
				}
			],
			"request": {
				"method": "POST",
				"header": [],
				"body": {
					"mode": "raw",
					"raw": "{\n    \"name\": \"tester\",\n    \"job\": \"leader\"\n}",
					"options": {
						"raw": {
							"language": "json"
						}
					}
				},
				"url": {
					"raw": "{{baseUrl}}/api/users",
					"host": [
						"{{baseUrl}}"
					],
					"path": [
						"api",
						"users"
					]
				}
			},
			"response": []
		},
		{
			"name": "CreateUser_withEmptyPayload",
			"event": [
				{
					"listen": "test",
					"script": {
						"exec": [
							"console.log(\"CREATE with empty payload api tests\")",
							"// Validate Status Code",
							"pm.test(\"1: Validate status code\", function () {",
							"    pm.response.to.have.status(201);",
							"    pm.response.to.have.status(\"Created\");",
							"    console.log(\"https status: \" +pm.response.status)",
							"});",
							"",
							"// Header validation",
							"pm.test(\"2: is Content-Type present\", function () {",
							"    pm.response.to.have.header(\"Content-Type\");",
							"});",
							"",
							"pm.test(\"3: Content-Type validation\", function () {",
							"pm.response.headers.get(\"Content-Type\") === \"application/json; charset=utf-8\";",
							"   }); ",
							"",
							"//Field Values validation",
							"var jsonData = JSON.parse(responseBody);",
							"pm.test(\"4: Field Validation: id\",function () {",
							"pm.expect(jsonData.id).not.to.be.oneOf([null,\"\",undefined])",
							"});",
							"",
							"//Date Format validation",
							"pm.test(\"5: Date format validation\", function () {",
							"    var dateFormat = /\\d{4}-\\d{2}-\\d{2}T\\d{2}:\\d{2}:\\d{2}(\\.\\d+)?[zZ]/;",
							"    pm.expect(jsonData.createdAt).to.match(dateFormat);",
							"});",
							"",
							"//Reponse Json Schema Validation",
							"var schema ={",
							"    \"type\": \"object\",",
							"    \"required\": [",
							"        \"id\",",
							"        \"createdAt\"",
							"    ],",
							"    \"properties\": {",
							"        \"id\": {",
							"            \"$id\": \"#/properties/id\",",
							"            \"type\": \"string\"",
							"        },",
							"        \"createdAt\": {",
							"            \"$id\": \"#/properties/createdAt\",",
							"            \"type\": \"string\"",
							"        }",
							"    }",
							"};",
							"    ",
							"",
							"pm.test(\"6: Validate response JSON schema\", () => {",
							"pm.response.to.have.jsonSchema(schema);",
							"});",
							""
						],
						"type": "text/javascript"
					}
				}
			],
			"request": {
				"method": "POST",
				"header": [],
				"url": {
					"raw": "{{baseUrl}}/api/users",
					"host": [
						"{{baseUrl}}"
					],
					"path": [
						"api",
						"users"
					]
				}
			},
			"response": []
		},
		{
			"name": "UpdateUser",
			"event": [
				{
					"listen": "test",
					"script": {
						"exec": [
							"console.log(\"UPDATE api tests\")",
							"// Validate Status Code",
							"pm.test(\"1: Validate status code\", function () {",
							"    pm.response.to.have.status(200);",
							"    pm.response.to.have.status(\"OK\");",
							"});",
							"",
							"// Header validation",
							"pm.test(\"2: is Content-Type present\", function () {",
							"    pm.response.to.have.header(\"Content-Type\");",
							"});",
							"",
							"pm.test(\"3: Content-Type validation\", function () {",
							"pm.response.headers.get(\"Content-Type\") === \"application/json; charset=utf-8\";",
							"   });",
							"",
							"//Field Values validation",
							"var jsonData = JSON.parse(responseBody);",
							"pm.test(\"4: Field Validation: id\",function () {",
							" pm.expect(jsonData.name).to.be.eq(\"testLead\");",
							"    pm.expect(jsonData.job).to.be.eq(\"SoftwareTester\");",
							"});",
							"",
							"//Date Format validation",
							"pm.test(\"5: Date format validation\", function () {",
							"    var dateFormat = /\\d{4}-\\d{2}-\\d{2}T\\d{2}:\\d{2}:\\d{2}(\\.\\d+)?[zZ]/;",
							"    pm.expect(jsonData.updatedAt).to.match(dateFormat);",
							"});",
							"",
							"//Reponse Json Schema Validation",
							"var schema ={",
							"    \"type\": \"object\",",
							"    \"required\": [",
							"        \"name\",",
							"        \"job\",",
							"        \"updatedAt\"",
							"    ],",
							"    \"properties\": {",
							"        \"name\": {",
							"            \"$id\": \"#/properties/name\",",
							"            \"type\": \"string\"",
							"        },",
							"        \"job\": {",
							"            \"$id\": \"#/properties/job\",",
							"            \"type\": \"string\"",
							"        },",
							"        \"updatedAt\": {",
							"            \"$id\": \"#/properties/updatedAt\",",
							"            \"type\": \"string\"",
							"        }",
							"    }",
							"}",
							"    ",
							"",
							"pm.test(\"6: Validate response JSON schema\", () => {",
							"pm.response.to.have.jsonSchema(schema);",
							"});"
						],
						"type": "text/javascript"
					}
				}
			],
			"request": {
				"method": "PUT",
				"header": [],
				"body": {
					"mode": "raw",
					"raw": "{\n    \"name\": \"testLead\",\n    \"job\": \"SoftwareTester\"\n}",
					"options": {
						"raw": {
							"language": "json"
						}
					}
				},
				"url": {
					"raw": "{{baseUrl}}/api/users/2",
					"host": [
						"{{baseUrl}}"
					],
					"path": [
						"api",
						"users",
						"2"
					]
				}
			},
			"response": []
		},
		{
			"name": "DeleteUser",
			"event": [
				{
					"listen": "test",
					"script": {
						"exec": [
							"console.log(\"DELETE api tests\")",
							"// Validate Status Code",
							"pm.test(\"1: Validate status code\", function () {",
							"    pm.response.to.have.status(204);",
							"    pm.response.to.have.status(\"No Content\");",
							"});",
							"",
							"// Header validation",
							"pm.test(\"2: is Content-Type present\", function () {",
							"    pm.expect(pm.response).not.to.have.header(\"Content-Type\");",
							"});",
							""
						],
						"type": "text/javascript"
					}
				}
			],
			"request": {
				"method": "DELETE",
				"header": [],
				"url": {
					"raw": "{{baseUrl}}/api/users/2",
					"host": [
						"{{baseUrl}}"
					],
					"path": [
						"api",
						"users",
						"2"
					]
				}
			},
			"response": []
		}
	]
}